// Jest Snapshot v1, https://goo.gl/fbAQLP

exports[`Tests de componente BtnCustom Debe renderizar el componente correctamente 1`] = `<q-btn-stub label="Join" color="" replace="false" exact="false" activeclass="q-router-link--active" exactactiveclass="q-router-link--exact-active" disable="false" type="submit" round="false" outline="false" flat="true" unelevated="true" rounded="false" push="false" glossy="false" fab="false" fabmini="false" nocaps="false" nowrap="false" dense="false" ripple="true" align="center" stack="false" stretch="false" darkpercentage="false" class="full-width lg-blue-button&quot;"></q-btn-stub>`;
